<svg version="1.0" xmlns="http://www.w3.org/2000/svg" xmlns:xlink="http://www.w3.org/1999/xlink" x="0px" y="0px"
	 width="100%" height="100%" viewBox="0 0 100 100" enable-background="new 0 0 100 100" xml:space="preserve">
	<g>
	<rect x="0.5" y="5.5" width="4" height="89"/>
	<path d="M4,6v88H1V6H4 M5,5H0v90h5V5L5,5z"/>

	<rect class="seat" x="5.5" y="5.5" width="19" height="89"/>
	<path d="M24,6v88H6V6H24 M25,5H5v90h20V5L25,5z"/>

	<rect x="95.5" y="5.5" width="4" height="89"/>
	<path d="M99,6v88h-3V6H99 M100,5h-5v90h5V5L100,5z"/>

	<rect class="seat" x="75.5" y="5.5" width="19" height="89"/>
	<path d="M94,6v88H76V6H94 M95,5H75v90h20V5L95,5z"/>

	<rect class="table" x="25.5" y="5.5" width="49" height="89"/>
	<path d="M74,6v88H26V6H74 M75,5H25v90h50V5L75,5z"/>

	<line fill="none" stroke="#000000" stroke-miterlimit="10" x1="5" y1="50" x2="25" y2="50"/>
	<line fill="none" stroke="#000000" stroke-miterlimit="10" x1="75" y1="50" x2="95" y2="50"/>
	</g>
</svg>