<?xml version="1.0" encoding="utf-8"?>
<!-- Generator: Adobe Illustrator 18.0.0, SVG Export Plug-In . SVG Version: 6.00 Build 0)  -->
<!DOCTYPE svg PUBLIC "-//W3C//DTD SVG 1.1//EN" "http://www.w3.org/Graphics/SVG/1.1/DTD/svg11.dtd">
<svg version="1.1" id="Layer_1" xmlns="http://www.w3.org/2000/svg" xmlns:xlink="http://www.w3.org/1999/xlink" x="0px" y="0px"
	 viewBox="0 0 40 35" enable-background="new 0 0 40 35" xml:space="preserve">
<g>
	<path fill="#5089C0" d="M15.8,21.7c2.6-2.6,5.1-5.1,7.6-7.6c0.5-0.6,0.9-0.7,1.5-0.1c1.8,1.9,3.7,3.7,5.5,5.6
		C30.8,20,31,20.4,31,21c0,1.7,0,3.3,0,5c0,0.7-0.1,1.1-1,1.1c-6.7,0-13.4,0-20.1,0c-0.7,0-1-0.2-1-0.9c0.1-0.8,0-1.6,0-2.4
		c0-0.4,0-0.7,0.4-1c1.1-1.1,2.2-2.2,3.3-3.3c0.5-0.5,0.8-0.3,1.1,0.1C14.4,20.2,15.1,20.9,15.8,21.7z"/>
	<circle fill="#5089C0" cx="13.2" cy="11.9" r="4.2"/>
</g>
</svg>
