<?xml version="1.0" encoding="utf-8"?>
<!-- Generator: Adobe Illustrator 18.0.0, SVG Export Plug-In . SVG Version: 6.00 Build 0)  -->
<!DOCTYPE svg PUBLIC "-//W3C//DTD SVG 1.1//EN" "http://www.w3.org/Graphics/SVG/1.1/DTD/svg11.dtd">
<svg version="1.1" id="Layer_1" xmlns="http://www.w3.org/2000/svg" xmlns:xlink="http://www.w3.org/1999/xlink" x="0px" y="0px"
	 viewBox="0 0 40 35" enable-background="new 0 0 40 35" xml:space="preserve">
<g>
	<path fill="#5089C0" d="M33,31.4c-0.6-1.5-1.2-3-1.9-4.4c-0.1-0.1-0.1-0.1-0.2,0c-0.7,0.7-1.5,1.5-2.2,2.2l-0.1,0.1
		c-0.1,0,0-0.1,0-0.2c0.1-2.3,0.1-4.4,0.2-6.7c0-1.1,0.1-2.2,0.1-3.3V19c0,0,0-0.1,0.1,0c0.5,0.5,1,0.9,1.5,1.4c1.1,1,2.2,2,3.3,3
		c0.9,0.9,1.8,1.6,2.7,2.5l0,0c0,0,0,0,0,0.1c0,0,0,0-0.1,0c-0.2,0-0.2,0-0.4,0c-0.9,0-1.9,0.1-2.9,0.1c-0.2,0-0.2,0-0.1,0.1
		c0.6,1.4,1.2,2.9,1.9,4.3c0.1,0.2,0.1,0.2-0.1,0.2c-0.5,0.2-1.1,0.5-1.7,0.7C33.1,31.4,33.1,31.4,33,31.4C33,31.5,33,31.5,33,31.4z
		"/>
</g>
<polygon fill="#5089C0" points="0,8 0,26 26,26 26,25 26,24 1,24 1,9 39,9 39,25 39,26 40,26 40,8 "/>
</svg>
